…
## Data

There are two datasets included:

1.  `MatchSummaries`: data frame overview stats for each match
2.  `PassNetwork`: data frame containing `igraph` directed passing
    networks

``` r
library(Euro2020PassNetworks)
MatchSummaries
#> # A tibble: 51 x 15
#>    matchday date       home    away    sc_home sc_away had_penalties sc_pen_home
#>       <dbl> <date>     <chr>   <chr>     <dbl>   <dbl> <lgl>               <dbl>
#>  1        1 2021-06-11 Turkey  Italy         0       3 FALSE                  NA
#>  2        1 2021-06-12 Belgium Russia        3       0 FALSE                  NA
#>  3        1 2021-06-12 Denmark Finland       0       1 FALSE                  NA
#>  4        1 2021-06-12 Wales   Switze~       1       1 FALSE                  NA
#>  5        1 2021-06-13 Nether~ Ukraine       3       2 FALSE                  NA
#>  6        1 2021-06-13 Austria North ~       3       1 FALSE                  NA
#>  7        1 2021-06-13 England Croatia       1       0 FALSE                  NA
#>  8        1 2021-06-14 Spain   Sweden        0       0 FALSE                  NA
#>  9        1 2021-06-14 Poland  Slovak~       1       2 FALSE                  NA
#> 10        1 2021-06-14 Scotla~ Czech ~       0       2 FALSE                  NA
#> # ... with 41 more rows, and 7 more variables: sc_pen_away <dbl>,
#> #   pos_home <dbl>, pos_away <dbl>, total_shots_home <dbl>,
#> #   total_shots_away <dbl>, shots_on_target_home <dbl>,
#> #   shots_on_target_away <dbl>
```

``` r
PassNetworks
#> # A tibble: 51 x 4
#>    home        away            home_graph away_graph
#>    <chr>       <chr>           <list>     <list>    
#>  1 Turkey      Italy           <igraph>   <igraph>  
#>  2 Belgium     Russia          <igraph>   <igraph>  
#>  3 Denmark     Finland         <igraph>   <igraph>  
#>  4 Wales       Switzerland     <igraph>   <igraph>  
#>  5 Netherlands Ukraine         <igraph>   <igraph>  
#>  6 Austria     North Macedonia <igraph>   <igraph>  
#>  7 England     Croatia         <igraph>   <igraph>  
#>  8 Spain       Sweden          <igraph>   <igraph>  
#>  9 Poland      Slovakia        <igraph>   <igraph>  
#> 10 Scotland    Czech Republic  <igraph>   <igraph>  
#> # ... with 41 more rows
```
…
